Understanding Inference
…
# Name an object "homes" that will pass NHANES data to a selection of Gender and Homeown, then filter this again by HomeOwn for thoes that"Own" and "rent" by gender.
homes <- NHANES %>% select(Gender, HomeOwn) %>% filter(HomeOwn%in% c("Own", "Rent"))
#check out what your new filtered data looks like
homes

## # A tibble: 9,712 x 2
##    Gender HomeOwn
##    <fct>  <fct>  
##  1 male   Own    
##  2 male   Own    
##  3 male   Own    
##  4 male   Own    
##  5 female Rent   
##  6 male   Rent   
##  7 male   Own    
##  8 female Own    
##  9 female Own    
## 10 female Own    
## #  with 9,702 more rows
…
#there is no evidence that the observed data differs from normal variability. It doesn't mean that gender plays no roll, but only that we can't reject the null hypothesis. The Nhanes is a good sample of the entire US population, but no claim can be made at this point.

##Lets look at it another way

homeown_perm <- homes %>% 
specify(HomeOwn ~ Gender, success = "Own") %>%
hypothesize(null = "independence") %>% 
generate(reps = 100, type = "permute")
homeown_perm %>% group_by(replicate) %>% count(HomeOwn, Gender)

## # A tibble: 400 x 4
## # Groups:   replicate [100]
##    replicate HomeOwn Gender     n
##        <int> <fct>   <fct>  <int>
##  1         1 Own     female  3264
##  2         1 Own     male    3161
##  3         1 Rent    female  1626
##  4         1 Rent    male    1661
##  5         2 Own     female  3255
##  6         2 Own     male    3170
##  7         2 Rent    female  1635
##  8         2 Rent    male    1652
##  9         3 Own     female  3282
## 10         3 Own     male    3143
## #  with 390 more rows

homeown_perm %>% calculate("diff in props", order = c("male", "female"))

## # A tibble: 100 x 2
##    replicate      stat
##        <int>     <dbl>
##  1         1 -0.0119  
##  2         2 -0.00824 
##  3         3 -0.0194  
##  4         4  0.0107  
##  5         5  0.000409
##  6         6  0.0128  
##  7         7  0.0103  
##  8         8  0.00164 
##  9         9  0.000409
## 10        10 -0.00495 
## #  with 90 more rows
…
